C:\DesarrolloIder\Workspace\jee\ider\ider-metrics\src\main\java\com\ider\metrics\rest\endpoint\MetricsRestController.java
C:\DesarrolloIder\Workspace\jee\ider\ider-metrics\src\main\java\com\ider\metrics\rest\endpoint\util\RestResponseEntityExceptionHandler.java
C:\DesarrolloIder\Workspace\jee\ider\ider-metrics\src\main\java\com\ider\metrics\util\MetricsInstaller.java
C:\DesarrolloIder\Workspace\jee\ider\ider-metrics\src\main\java\com\ider\metrics\rest\endpoint\util\Response.java
C:\DesarrolloIder\Workspace\jee\ider\ider-metrics\src\main\java\com\ider\metrics\rest\endpoint\util\ResponseBuilder.java
